Data Manipulation
…
<img src="img/select.PNG" width="40%" style="display: block; margin: auto;" />

.footnote[[Rstudio dplyr cheatsheet ](https://github.com/rstudio/cheatsheets/blob/master/data-transformation.pdf)]
---
## Select a single column

View only `lead_time` (number of days between booking and arrival date):

```r
select(hotels, lead_time)  
```

```
## # A tibble: 1,000 x 1
##   lead_time
##       <dbl>
## 1        53
## 2        93
## 3         2
## 4       226
## 5       247
## 6       147
## # ... with 994 more rows
```
…
---

## Select a single column

.pull-left[

```r
select( 
  hotels, 
  lead_time
  )
```

```
## # A tibble: 1,000 x 1
##   lead_time
##       <dbl>
## 1        53
## 2        93
## 3         2
## 4       226
## 5       247
## 6       147
## # ... with 994 more rows
```
…
---

.tip[
dplyr functions always expect a data frame and always yield a data frame.
]

```r
select(hotels, lead_time)
```

```
## # A tibble: 1,000 x 1
##   lead_time
##       <dbl>
## 1        53
## 2        93
## 3         2
## 4       226
## 5       247
## 6       147
## # ... with 994 more rows
```

---
## `select` multiple columns

View `lead_time` and `hotel` type:

```r
select(hotels, hotel, lead_time)
```

```
## # A tibble: 1,000 x 2
##   hotel        lead_time
##   <chr>            <dbl>
## 1 City Hotel          53
## 2 Resort Hotel        93
## 3 Resort Hotel         2
## 4 City Hotel         226
## 5 City Hotel         247
## 6 City Hotel         147
## # ... with 994 more rows
```

---
## `select` to exclude variables

```r
*select(hotels, -agent)
```

```
## # A tibble: 1,000 x 31
##   hotel   is_canceled lead_time arrival_date_ye~ arrival_date_mo~
##   <chr>         <dbl>     <dbl>            <dbl> <chr>           
## 1 City H~           0        53             2015 August          
## 2 Resort~           0        93             2017 May             
## 3 Resort~           0         2             2017 February        
## 4 City H~           0       226             2016 July            
## 5 City H~           0       247             2016 June            
## 6 City H~           1       147             2015 July            
## # ... with 994 more rows, and 26 more variables:
## #   arrival_date_week_number <dbl>,
## #   arrival_date_day_of_month <dbl>,
## #   stays_in_weekend_nights <dbl>, stays_in_week_nights <dbl>,
## #   adults <dbl>, children <dbl>, babies <dbl>, meal <chr>,
## #   country <chr>, market_segment <chr>,
## #   distribution_channel <chr>, is_repeated_guest <dbl>, ...
```

---

## `select` a range of variables

```r
*select(hotels, hotel:arrival_date_month)
```

```
## # A tibble: 1,000 x 5
##   hotel   is_canceled lead_time arrival_date_ye~ arrival_date_mo~
##   <chr>         <dbl>     <dbl>            <dbl> <chr>           
## 1 City H~           0        53             2015 August          
## 2 Resort~           0        93             2017 May             
## 3 Resort~           0         2             2017 February        
## 4 City H~           0       226             2016 July            
## 5 City H~           0       247             2016 June            
## 6 City H~           1       147             2015 July            
## # ... with 994 more rows
```

---

## `select` variables with certain characteristics

```r
*select(hotels, starts_with("arrival"))
```

```
## # A tibble: 1,000 x 4
##   arrival_date_year arrival_date_month arrival_date_week_number
##               <dbl> <chr>                                 <dbl>
## 1              2015 August                                   35
## 2              2017 May                                      19
## 3              2017 February                                  8
## 4              2016 July                                     30
## 5              2016 June                                     24
## 6              2015 July                                     30
## # ... with 994 more rows, and 1 more variable:
## #   arrival_date_day_of_month <dbl>
```

---

## `select` variables with certain characteristics

```r
*select(hotels, ends_with("type"))
```

```
## # A tibble: 1,000 x 4
##   reserved_room_type assigned_room_ty~ deposit_type customer_type
##   <chr>              <chr>             <chr>        <chr>        
## 1 A                  A                 No Deposit   Transient-Pa~
## 2 D                  D                 No Deposit   Contract     
## 3 F                  F                 No Deposit   Transient    
## 4 A                  A                 No Deposit   Transient-Pa~
## 5 A                  F                 No Deposit   Transient-Pa~
## 6 A                  A                 No Deposit   Transient    
## # ... with 994 more rows
```
…
--
.pull-left[ 
- Start with the `select` function and pass on the result to `arrange`,
]

--
.pull-right[

```r
select(hotels, hotel, lead_time) %>% 
    arrange(desc(lead_time) )
```

```
## # A tibble: 1,000 x 2
##   hotel      lead_time
##   <chr>          <dbl>
## 1 City Hotel       626
## 2 City Hotel       622
## 3 City Hotel       504
## 4 City Hotel       479
## 5 City Hotel       478
## 6 City Hotel       475
## # ... with 994 more rows
```
…
---
## Piping it all the way

.pull-left[
- Start with the data frame `hotels`, and pass it to the `select()` function,
]
.pull-right[

```r
*hotels %>%
  select(hotel, lead_time) 
```

```
## # A tibble: 1,000 x 2
##   hotel        lead_time
##   <chr>            <dbl>
## 1 City Hotel          53
## 2 Resort Hotel        93
## 3 Resort Hotel         2
## 4 City Hotel         226
## 5 City Hotel         247
## 6 City Hotel         147
## # ... with 994 more rows
```
…
## Piping it all the way

.pull-left[
- Start with the data frame `hotels`, and pass it to the `select()` function,
- then we select the variables `hotel` and `lead_time`,
]
.pull-right[

```r
hotels %>%
* select(hotel, lead_time)
```

```
## # A tibble: 1,000 x 2
##   hotel        lead_time
##   <chr>            <dbl>
## 1 City Hotel          53
## 2 Resort Hotel        93
## 3 Resort Hotel         2
## 4 City Hotel         226
## 5 City Hotel         247
## 6 City Hotel         147
## # ... with 994 more rows
```
…
.pull-left[
- Start with the data frame `hotels`, and pass it to the `select()` function,
- then we select the variables `hotel` and `lead_time`,
- and then we arrange the data frame by `lead_time` in descending order.
]
.pull-right[

```r
hotels %>%
  select(hotel, lead_time) %>% 
*    arrange(desc(lead_time))
```

```
## # A tibble: 1,000 x 2
##   hotel      lead_time
##   <chr>          <dbl>
## 1 City Hotel       626
## 2 City Hotel       622
## 3 City Hotel       504
## 4 City Hotel       479
## 5 City Hotel       478
## 6 City Hotel       475
## # ... with 994 more rows
```
…
```r
hotels %>%
  #arrange columns                    # this line is a comment
  #select( hotel, lead_time ) %>%      # this one doesn't run
  arrange(desc(lead_time))             # this line runs
```

```
## # A tibble: 1,000 x 32
##   hotel   is_canceled lead_time arrival_date_ye~ arrival_date_mo~
##   <chr>         <dbl>     <dbl>            <dbl> <chr>           
## 1 City H~           1       626             2016 November        
## 2 City H~           1       622             2017 March           
## 3 City H~           0       504             2017 August          
## 4 City H~           1       479             2017 July            
## 5 City H~           0       478             2017 August          
## 6 City H~           1       475             2016 October         
## # ... with 994 more rows, and 27 more variables:
…
```r
# Resort Hotel
hotels %>%
  mutate(little_ones = children + babies) %>%
  filter(
    little_ones >= 1,
    hotel == "Resort Hotel"
    ) %>%
  select(hotel, little_ones)
```

```
## # A tibble: 29 x 2
##   hotel        little_ones
##   <chr>              <dbl>
## 1 Resort Hotel           2
## 2 Resort Hotel           1
## 3 Resort Hotel           2
## 4 Resort Hotel           2
## 5 Resort Hotel           2
## 6 Resort Hotel           2
## # ... with 23 more rows
```
…
```r
# City Hotel
hotels %>%
  mutate(little_ones = children + babies) %>%
  filter(
    little_ones >= 1,
    hotel == "City Hotel"
    )  %>%
  select(hotel, little_ones)
```

```
## # A tibble: 52 x 2
##   hotel      little_ones
##   <chr>            <dbl>
## 1 City Hotel           1
## 2 City Hotel           1
## 3 City Hotel           1
## 4 City Hotel           1
## 5 City Hotel           1
## 6 City Hotel           1
## # ... with 46 more rows
```
…
